[{ "title": "Forrest Ackerman", "subTitle": "d December 4, 2008" },
{ "title": "Suzanne All\u00E1s Blom", "subTitle": "d June 23, 2012" },
{ "title": "Paul Dale Anderson", "subTitle": "d December 18, 2018" },
{ "title": "Karen Axness", "subTitle": "d August 11, 1996" },
{ "title": "Iain Banks - W14 GoH", "subTitle": "d June 9, 2013" },
{ "title": "Octavia E. Butler - W4 GoH", "subTitle": "d February 24, 2006" },
{ "title": "Velma J. Bowen \"Vijay\"", "subTitle": "d October 18, 2014" },
{ "title": "Beth Brown", "subTitle": "d July 14, 2015" },
{ "title": "Terry Carr - W6 GoH", "subTitle": "d April 7, 1987" },
{ "title": "June Cotton", "subTitle": "d September 23, 2018" },
{ "title": "Buck Coulson - W5 GoH", "subTitle": "d February 19, 1999" },
{ "title": "Goldy Decker", "subTitle": "d November 7, 2013" },
{ "title": "Gardner Dozois - W13 GoH", "subTitle": "d May 27, 2018" },
{ "title": "Carol Emshwiller - W27 GoH", "subTitle": "d February 2, 2019" },
{ "title": "Julie Gomoll", "subTitle": "d July 25, 2017" },
{ "title": "Daniel Grotta", "subTitle": "d December 13, 2015" },
{ "title": "Suzette Haden Elgin - W6 & W10 GoH", "subTitle": "d January 27, 2015" },
{ "title": "Joan Hanke-Woods \"Delphyne Woods\"", "subTitle": "d September 16, 2013" },
{ "title": "David Hartwell - W4 GoH", "subTitle": "d January 20, 2016" },
{ "title": "Lisa Hauter", "subTitle": "d April 13, 2012" },
{ "title": "Peter Hudson", "subTitle": "d March 26, 2011" },
{ "title": "Jordin Kare", "subTitle": "d July 19, 2017" },
{ "title": "Beth Kiedrowicz", "subTitle": "d October 22, 2004" },
{ "title": "Ursula K Le Guin - W20 GoH", "subTitle": "d January 22, 2018" },
{ "title": "Michael M Levy", "subTitle": "d April 4, 2017" },
{ "title": "Kate Lundsten", "subTitle": "d January 8, 2016" },
{ "title": "Vonda N. McIntyre - W2 GoH", "subTitle": "d April 1, 2019" },
{ "title": "Judith Merril - W20 GoH", "subTitle": "d September 12, 1997" },
{ "title": "Kathleen Massie-Ferch", "subTitle": "d July 15, 2002" },
{ "title": "Ama Patterson", "subTitle": "d May 1, 2017" },
{ "title": "Lee Pelton", "subTitle": "d December 28, 1997" },
{ "title": "John Peterson", "subTitle": "d February 28, 2010" },
{ "title": "Janet Elle Plato", "subTitle": "d June 2, 2016" },
{ "title": "N\u00F3ir\u00EDn Plunkett", "subTitle": "d July 20, 2015" },
{ "title": "John Calvin \"Rez\" Rezmerski", "subTitle": "d November 5, 2016" },
{ "title": "Theodore Roszak - 1996 Tiptree Winner", "subTitle": "d July 5, 2011" },
{ "title": "Stu Shiffman - W12 GoH", "subTitle": "d November 26, 2014" },
{ "title": "Jef Smith", "subTitle": "d March 2016" },
{ "title": "Mary Sobota", "subTitle": "d January 15, 2015" },
{ "title": "Sheri S. Tepper - W22 GoH", "subTitle": "d October 22, 2016" },
{ "title": "Kate Wilhelm - W30 GoH", "subTitle": "d March 8, 2018" },
{ "title": "Elsie Wollheim - W5 GoH", "subTitle": "d February 9, 1996" },
{ "title": "Don Wollheim - W5 GoH", "subTitle": "d November 2, 1990" },
{ "title": "Susan Wood - W2 GoH", "subTitle": "d November 12, 1980" }
]
